simulation/qsim/cachorro_automatico.msim.vcd
$comment
	File created using the following command:
		vcd file cachorro_automatico.msim.vcd -direction
$end
$date
	Sun Oct 20 12:27:54 2024
$end
$version
	ModelSim Version 2020.1
$end
$timescale
	1ps
$end

$scope module contador_sincrono_vlg_vec_tst $end
$var reg 1 ! clock $end
$var reg 1 " reset $end
$var wire 1 # bits_out [2] $end
$var wire 1 $ bits_out [1] $end
$var wire 1 % bits_out [0] $end

$scope module i1 $end
$var wire 1 & gnd $end
$var wire 1 ' vcc $end
$var wire 1 ( unknown $end
$var tri1 1 ) devclrn $end
$var tri1 1 * devpor $end
$var tri1 1 + devoe $end
$var wire 1 , clock~combout $end
$var wire 1 - reset~combout $end
$var wire 1 . Ff_A|Q~regout $end
$var wire 1 / Ff_B|Q~regout $end
$var wire 1 0 Ff_C|Q~regout $end
$upscope $end
$upscope $end
$enddefinitions $end
#0
$dumpvars
0!
0"
0%
0$
0#
0&
1'
x(
1)
1*
1+
0,
0-
0.
0/
00
$end
#10000
1!
1,
10
1%
#20000
0!
0,
#30000
1!
1,
00
1/
0%
1$
#40000
1"
0!
1-
0,
#50000
0"
1!
0-
1,
10
0/
1.
1%
0$
1#
#60000
0!
0,
#70000
1!
1,
00
0.
0%
0#
#80000
0!
0,
#90000
1!
1,
10
1%
#100000
1"
0!
1-
0,
#110000
0"
1!
0-
1,
1.
1#
#120000
0!
0,
#130000
1"
1!
1-
1,
00
0.
0%
0#
#140000
0"
0!
0-
0,
#150000
1!
1,
10
1%
#160000
0!
0,
#170000
1!
1,
00
1/
0%
1$
